…
``` r
maxCounts <- counts %>%
  filter(ligand != "p129") %>%
  group_by(cell_bc) %>%
  summarise(max_counts = max(expression))

maxCounts
```

    ## # A tibble: 15,111 × 2
    ##    cell_bc                  max_counts
    ##    <chr>                         <dbl>
    ##  1 lane1_AAACCAAAGACATGCC-1          7
    ##  2 lane1_AAACCAAAGACCAGAG-1         11
    ##  3 lane1_AAACCAAAGAGGACCA-1          4
    ##  4 lane1_AAACCAAAGCAATTAC-1          3
    ##  5 lane1_AAACCAAAGGCAGGGT-1          4
    ##  6 lane1_AAACCAAAGGTAAGCG-1         17
    ##  7 lane1_AAACCAGCAAAGTGCA-1          6
    ##  8 lane1_AAACCATTCACTCCCA-1          3
    ##  9 lane1_AAACCATTCATAGCAT-1          3
    ## 10 lane1_AAACCATTCGCCATAA-1          3
    ## # ℹ 15,101 more rows
…
