…
## <u>Perturbation \# Quantification</u>

``` r
pertNum <- data@meta.data %>%
  group_by(oBC_feature_call) %>%
  summarise(n = n())
pertNum
```

    ## # A tibble: 83 × 2
    ##    oBC_feature_call     n
    ##    <chr>            <int>
    ##  1 ADIPOQ             676
    ##  2 BMP10              583
    ##  3 BMP4               394
    ##  4 BMP7               417
    ##  5 CCL12              433
    ##  6 CCL19              698
    ##  7 CCL2               213
    ##  8 CCL21A             398
    ##  9 CCL25              697
    ## 10 CCL3               623
    ## # ℹ 73 more rows
…
